10 From Regional to Aggregate Fluctuations – The Dynamic Effects of Weather Shocks on Agricultural Production
…
weather_measure_crop <- 
  weather_measure_crop |> 
  left_join(
    df |> select(product_eng, region_id, date, y_new, Value_prices),
    by = c("date", "crop" = "product_eng", "region_id")
  ) |> 
  left_join(
    average_price_crops,
    by = c("crop" = "product_eng")
  )

weather_measure_crop

# A tibble: 136,890 × 12
   date       region_id contribution contribution_lb contribution_ub significant
   <date>     <fct>            <dbl>           <dbl>           <dbl>       <dbl>
 1 2001-01-01 1              0.354           0.443            0.265            1
 2 2001-02-01 1              0.267           0.363            0.171            1
 3 2001-03-01 1              0.167           0.207            0.128            1
 4 2001-04-01 1              0.0955          0.138            0.0526           1
 5 2001-05-01 1              0.110           0.133            0.0874           1
 6 2001-06-01 1              0.197           0.256            0.138            1
 7 2001-07-01 1              0.116           0.147            0.0855           1
 8 2001-08-01 1              0.0466          0.0658           0.0275           1
 9 2001-09-01 1              0.124           0.136            0.113            1
10 2001-10-01 1              0.00941         0.00436          0.0145           1
# ℹ 136,880 more rows
# ℹ 6 more variables: horizon <int>, crop <chr>, contribution_signif <dbl>,
#   y_new <dbl>, Value_prices <dbl>, price_crop <dbl>
10.1.2 Step 2: Quantity Weights

For each crop and date \(t\), we define some weights for the regional observations using the data observed at horizon \(h=0\), as the sum of the monthly agricultural production over the regions considered in the analysis. The monthly production is expressed in monetary terms, by multiplying the quantities (y_new, i.e., \(y^{raw}\)) by unit price (price_crop, i.e., \(p_c\)).

\[\omega_{c,t} = \sum_{i} y^{\text{raw}}_{c,t,i} \times p_{c}\]

quantity_weight <- 
  weather_measure_crop |> 
  filter(horizon == 0) |> 
  group_by(crop, date, horizon, price_crop) |> 
  summarise(quantity_weight = sum(price_crop * y_new), .groups = "drop") |> 
  select(crop, date, quantity_weight)
quantity_weight

# A tibble: 720 × 3
   crop    date       quantity_weight
   <chr>   <date>               <dbl>
 1 Cassava 2001-01-01          38797.
 2 Cassava 2001-02-01          39625.
 3 Cassava 2001-03-01          44893.
 4 Cassava 2001-04-01          44893.
 5 Cassava 2001-05-01          41857.
 6 Cassava 2001-06-01          36333.
 7 Cassava 2001-07-01          36333.
 8 Cassava 2001-08-01          39766.
 9 Cassava 2001-09-01          36525.
10 Cassava 2001-10-01          36525.
# ℹ 710 more rows
…
