The Dynamic Effects of Weather Shocks on Agricultural Production - 6 Descriptive Statistics
…
prod_reg <- 
  data_total |> 
  group_by(region, product_eng) |> 
  summarise(
    total_production = sum(Value_prod, na.rm = T),
    .groups = "drop"
  ) |> 
  unique() |> 
  group_by(product_eng) |> 
  mutate(total_culture = sum(total_production)) |> 
  ungroup() |> 
  mutate(share = total_production / total_culture)
prod_reg

# A tibble: 144 × 5
   region   product_eng     total_production total_culture   share
   <chr>    <chr>                      <dbl>         <dbl>   <dbl>
 1 AMAZONAS Amylaceous corn           99281.      3976940. 0.0250 
 2 AMAZONAS Cassava                 1894369.     16268850. 0.116  
 3 AMAZONAS Dent corn                329168.     17776855. 0.0185 
 4 AMAZONAS Potato                   925576.     55753747. 0.0166 
 5 AMAZONAS Rice                    4001141.     38770607. 0.103  
 6 AMAZONAS Wheat                     13652.      3041972. 0.00449
 7 ANCASH   Amylaceous corn          183573.      3976940. 0.0462 
 8 ANCASH   Cassava                   99944.     16268850. 0.00614
 9 ANCASH   Dent corn               1259909.     17776855. 0.0709 
10 ANCASH   Potato                  1582314.     55753747. 0.0284 
# ℹ 134 more rows
…
spei_piscop_12
0.06
-0.01
0.05
0.01

6.5 Summary Statistics for the Local Projection Data

The number of observation in each region and crops (ordered by decreasing values):

df |> 
  count(product_eng, region_id) |> 
  arrange(n)

# A tibble: 78 × 3
   product_eng region_id     n
   <chr>       <fct>     <int>
 1 Cassava     1           180
 2 Cassava     2           180
 3 Cassava     3           180
 4 Cassava     4           180
 5 Cassava     5           180
 6 Cassava     6           180
 7 Cassava     7           180
 8 Cassava     9           180
 9 Cassava     10          180
10 Cassava     11          180
# ℹ 68 more rows
…
