2 Agricultural Data – The Dynamic Effects of Weather Shocks on Agricultural Production
…
    region = str_replace_all(region, "á", "a"),
    region = str_replace_all(region, "í", "i"),
    region = str_replace_all(region, "é", "e"),
    region = str_replace_all(region, "ó", "o"),
    region = str_replace_all(region, "ú", "u"),
    region = str_replace_all(region, "ñ", "n")
  ) |> 
  mutate(
    region = toupper(region), 
    product = toupper(product),
    product = ifelse(str_detect(product, "ARROZ"), "ARROZ CÁSCARA", product)
  )
calendar2

# A tibble: 142 × 9
   product  pct.x region period.x month.x pct.y period.y month.y growth_duration
   <chr>    <dbl> <chr>  <chr>      <int> <dbl> <chr>      <int>           <dbl>
 1 ARROZ C…  15.5 AMAZO… harvest        8  17.3 planting       3               5
 2 FRIJOL …  24.6 AMAZO… harvest        7  31.5 planting      11               9
 3 MAÍZ AM…  15.4 AMAZO… harvest        6  15.7 planting       2               4
 4 MAÍZ AM…  20.9 AMAZO… harvest        8  27.1 planting      11              10
 5 PAPA      11.8 AMAZO… harvest        4  12.8 planting      11               6
 6 TRIGO     27.5 AMAZO… harvest        8  22.2 planting       3               5
 7 YUCA      13.3 AMAZO… harvest       11  14.4 planting      11              12
 8 ALGODÓN   19.2 ANCASH harvest        3  25.5 planting       8               8
 9 ARROZ C…  25.4 ANCASH harvest        3  32.5 planting      11               5
10 CEBADA …  62.2 ANCASH harvest        7  44.6 planting       1               6
# ℹ 132 more rows
…
