1 Weather Data – The Dynamic Effects of Weather Shocks on Agricultural Production
…
Let us save this object.

save(
  percent_cropland_cells, 
  file = "../data/output/land/percent_cropland_cells.rda"
)

percent_cropland_cells

# A tibble: 501 × 3
       i percent_cropland   area_cell
   <int>            <dbl>       [m^2]
 1     1          0         92458048.
 2     2          0.00965 2086260528.
 3     3          0.00555 1274189377.
 4     4          0         11536878.
 5     5          0.00169 1568751829.
 6     6          0.00147 3077021588.
 7     7          0.00686 1044813210.
 8     8          0         41984846.
 9     9          0.00243 2873299529.
10    10          0.0106  3076565442.
# ℹ 491 more rows
…
  prcp_grille_k[[k]] <- prcp_grid_j
  setTxtProgressBar(pb, k)
}

prcp_grille <- bind_rows(prcp_grille_k)

save(
  prcp_grille,
  file = "../data/output/weather/PISCO_precip/prcp_grille_piscop.rda"
)

prcp_grille

# A tibble: 6,587,148 × 3
   date       variable grid_id
   <date>        <dbl>   <int>
 1 1981-01-01    2.42        1
 2 1981-01-02    2.25        1
 3 1981-01-03    1.75        1
 4 1981-01-04    0.264       1
 5 1981-01-05   10.6         1
 6 1981-01-06   23.0         1
 7 1981-01-07   36.4         1
 8 1981-01-08   10.4         1
 9 1981-01-09    3.05        1
10 1981-01-10    6.06        1
# ℹ 6,587,138 more rows
…
The resulting tibble can be saved:

save(
  precip_grille,
  file = "../data/output/weather/CHIRPS-2_0_global_daily_p25/precip_grille.rda"
)

precip_grille

# A tibble: 7,441,353 × 3
    value date       grid_id
   [mm/d] <date>       <int>
 1  1.76  1981-01-01       1
 2  0.702 1981-01-02       1
 3  0     1981-01-03       1
 4  0     1981-01-04       1
 5  0     1981-01-05       1
 6  5.09  1981-01-06       1
 7 10.3   1981-01-07       1
 8 37.6   1981-01-08       1
 9 23.8   1981-01-09       1
10  0     1981-01-10       1
# ℹ 7,441,343 more rows
…
