The Dynamic Effects of Weather Shocks on Agricultural Production - 4 Other Data
…
Binding the results:

natural_region_dep <- 
  dplyr::bind_rows(natural_region_dep) |> 
  dplyr::mutate(natural_reg = str_c("share_", str_to_lower(natural_reg))) |> 
  tidyr::pivot_wider(
    names_from = natural_reg, 
    values_from = area_pct, 
    values_fill = 0
  )

natural_region_dep |>
  dplyr::mutate(test = share_sierra + share_selva + share_costa)

# A tibble: 25 × 5
   region       share_sierra share_selva share_costa  test
   <chr>               <dbl>       <dbl>       <dbl> <dbl>
 1 AMAZONAS            0.169   0.831        0            1
 2 ANCASH              0.709   0            0.291        1
 3 APURIMAC            1.00    0.0000420    0            1
 4 AREQUIPA            0.595   0            0.405        1
 5 AYACUCHO            0.943   0.0568       0.000172     1
 6 CAJAMARCA           0.525   0.370        0.105        1
 7 CALLAO              0       0            1            1
 8 CUSCO               0.487   0.513        0            1
 9 HUANCAVELICA        1.00    0.0000275    0.000132     1
10 HUANUCO             0.555   0.445        0            1
# ℹ 15 more rows
…
