5 Merging the files – The Dynamic Effects of Weather Shocks on Agricultural Production
…
Here are the first rows of that tibble:

data_total

# A tibble: 25,920 × 111
   region_id region   product       date       ln_prices ln_produc  year month
       <int> <chr>    <chr>         <date>         <dbl>     <dbl> <dbl> <dbl>
 1         1 AMAZONAS MAÍZ AMILÁCEO 2001-01-01     0          0     2001     1
 2         1 AMAZONAS MAÍZ AMILÁCEO 2001-02-01     0.536      6.58  2001     2
 3         1 AMAZONAS MAÍZ AMILÁCEO 2001-03-01    NA          6.26  2001     3
 4         1 AMAZONAS MAÍZ AMILÁCEO 2001-04-01     0.560      6.26  2001     4
 5         1 AMAZONAS MAÍZ AMILÁCEO 2001-05-01     0.565      6.04  2001     5
 6         1 AMAZONAS MAÍZ AMILÁCEO 2001-06-01    NA          7.00  2001     6
 7         1 AMAZONAS MAÍZ AMILÁCEO 2001-07-01     0.531      7.00  2001     7
 8         1 AMAZONAS MAÍZ AMILÁCEO 2001-08-01     0.525      8.37  2001     8
 9         1 AMAZONAS MAÍZ AMILÁCEO 2001-09-01    NA          6.53  2001     9
10         1 AMAZONAS MAÍZ AMILÁCEO 2001-10-01     0.519      6.53  2001    10
# ℹ 25,910 more rows
# ℹ 103 more variables: Value_prod <dbl>, surf_m <dbl>, Value_surfR <dbl>,
#   Value_prices <dbl>, campaign <dbl>, campaign_plain <chr>,
#   month_campaign <dbl>, surf_lag_calend <dbl>, product_eng <chr>,
#   perc_product <dbl>, perc_product_mean <dbl>, diff_plant_harv <dbl>,
#   exposition <dbl>, exposition_trend <dbl>, exposition_detrended <dbl>,
#   exposition_norm <dbl>, temp_min <dbl>, temp_max <dbl>, temp_mean <dbl>, …
…
crops <- c("Rice", "Dent corn", "Potato", "Cassava")

The number of observation in each region, for each crop:

data_total |> 
  filter(product_eng %in% crops) |> 
  group_by(product_eng, region_id) |> 
  summarise(n = sum(Value_prod <= 0)) |> 
  arrange(desc(n))

`summarise()` has grouped output by 'product_eng'. You can override using the
`.groups` argument.

# A tibble: 96 × 3
# Groups:   product_eng [4]
   product_eng region_id     n
   <chr>       <fct>     <int>
 1 Potato      15          180
 2 Potato      21          180
 3 Potato      23          180
 4 Potato      24          180
 5 Rice        3           180
 6 Rice        8           180
 7 Rice        10          180
 8 Rice        17          180
 9 Rice        22          180
10 Rice        14          171
# ℹ 86 more rows
…
For example, for potatoes in region with id 1:

pct_prod_production(
  df = data_total, 
    crop_name = "Potato", 
    region_id = 1
)

# A tibble: 180 × 9
   product_eng region_id month date       y_new y_dev_pct y_new_normalized     y
   <chr>       <fct>     <dbl> <date>     <dbl>     <dbl>            <dbl> <dbl>
 1 Potato      1             1 2001-01-01 2360    -0.301             0.699 0.671
 2 Potato      1             2 2001-02-01 2841    -0.379             0.621 0.565
 3 Potato      1             3 2001-03-01 4585    -0.151             0.849 0.774
 4 Potato      1             4 2001-04-01 4585    -0.107             0.893 0.786
 5 Potato      1             5 2001-05-01 6065     0.162             1.16  1.05 
 6 Potato      1             6 2001-06-01 3998.   -0.307             0.693 0.581
 7 Potato      1             7 2001-07-01 3998.   -0.351             0.649 0.520
 8 Potato      1             8 2001-08-01 5921    -0.0959            0.904 0.749
 9 Potato      1             9 2001-09-01 4751    -0.250             0.750 0.567
10 Potato      1            10 2001-10-01 4751    -0.151             0.849 0.649
# ℹ 170 more rows
# ℹ 1 more variable: t <int>
…
The elements of the list are all tibbles, with the same column names. We can merge them in a single tibble.

df_pct_pred_production <- bind_rows(df_pct_pred_production)

We can have a look at the number of months with 0 values for the agricultural production.

df_pct_pred_production |> 
  group_by(product_eng, region_id) |> 
  summarise(nb_0 = sum(y_new == 0)) |> 
  arrange(desc(nb_0))

`summarise()` has grouped output by 'product_eng'. You can override using the
`.groups` argument.

# A tibble: 78 × 3
# Groups:   product_eng [4]
   product_eng region_id  nb_0
   <chr>       <fct>     <int>
 1 Rice        2           108
 2 Rice        4           100
 3 Potato      20           71
 4 Rice        7            68
 5 Dent corn   3            67
 6 Dent corn   8            66
 7 Rice        16           61
 8 Dent corn   22           59
 9 Cassava     10           54
10 Rice        23           52
# ℹ 68 more rows
…
