The Dynamic Effects of Weather Shocks on Agricultural Production - 17 Aggregate Fluctuations
…
weather_measure_crop <- 
  weather_measure_crop |> 
  left_join(
    df |> select(product_eng, region_id, date, y_new, Value_prices),
    by = c("date", "crop" = "product_eng", "region_id")
  ) |> 
  left_join(
    average_price_crops,
    by = c("crop" = "product_eng")
  )

weather_measure_crop

# A tibble: 123,552 × 12
   date       region_id contribution contribution_lb contribution_ub significant
   <date>     <fct>            <dbl>           <dbl>           <dbl>       <dbl>
 1 2001-01-01 1               0.340           0.444         0.236              1
 2 2001-02-01 1               0.239           0.376         0.101              1
 3 2001-03-01 1               0.162           0.206         0.118              1
 4 2001-04-01 1               0.0901          0.180         0.000664           1
 5 2001-05-01 1               0.112           0.142         0.0829             1
 6 2001-06-01 1               0.190           0.283         0.0980             1
 7 2001-07-01 1               0.111           0.149         0.0731             1
 8 2001-08-01 1               0.0361          0.0565        0.0157             1
 9 2001-09-01 1               0.136           0.140         0.132              1
10 2001-10-01 1               0.0317          0.0580        0.00533            1
# ℹ 123,542 more rows
# ℹ 6 more variables: horizon <int>, crop <chr>, contribution_signif <dbl>,
#   y_new <dbl>, Value_prices <dbl>, price_crop <dbl>
17.1.2 Step 2: Quantity Weights

For each crop and date \(t\), we define some weights for the regional observations using the data observed at horizon \(h=0\), as the sum of the monthly agricultural production over the regions considered in the analysis. The monthly production is expressed in monetary terms, by multiplying the quantities (y_new, i.e., \(y^{raw}\)) by unit price (price_crop, i.e., \(p_c\)).

\[\omega_{c,t} = \sum_{i} y^{\text{raw}}_{c,t,i} \times p_{c}\]

quantity_weight <- 
  weather_measure_crop |> 
  filter(horizon == 0) |> 
  group_by(crop, date, horizon, price_crop) |> 
  summarise(quantity_weight = sum(price_crop * y_new), .groups = "drop") |> 
  select(crop, date, quantity_weight)
quantity_weight

# A tibble: 720 × 3
   crop    date       quantity_weight
   <chr>   <date>               <dbl>
 1 Cassava 2001-01-01          38797.
 2 Cassava 2001-02-01          39625.
 3 Cassava 2001-03-01          44893.
 4 Cassava 2001-04-01          44893.
 5 Cassava 2001-05-01          41857.
 6 Cassava 2001-06-01          36333.
 7 Cassava 2001-07-01          36333.
 8 Cassava 2001-08-01          39766.
 9 Cassava 2001-09-01          36525.
10 Cassava 2001-10-01          36525.
# ℹ 710 more rows
…
