The Dynamic Effects of Weather Shocks on Agricultural Production - 13 Quarterly Agricultural Production (LP)
…
library(fastDummies)

Thank you for using fastDummies!
To acknowledge our work, please cite the package:
Kaplan, J. & Schlegel, B. (2023). fastDummies: Fast Creation of Dummy (Binary) Columns and Rows from Categorical Variables. Version 1.7.1. URL: https://github.com/jacobkap/fastDummies, https://jacobkap.github.io/fastDummies/.

The data can be loaded (see Chapter 11)

load("../data/output/df_lp_quarter.rda")
df

# A tibble: 5,760 × 51
   product_eng region_id  year quarter  y_new y_dev_pct y_new_normalized       y
   <chr>       <fct>     <dbl>   <dbl>  <dbl>     <dbl>            <dbl>   <dbl>
 1 Cassava     1          2001       1 15374.    -0.487            0.513  0.293 
 2 Cassava     1          2001       2 16300.    -0.508            0.492  0.260 
 3 Cassava     1          2001       3 17152.    -0.502            0.498  0.256 
 4 Cassava     1          2001       4 18010.    -0.428            0.572  0.331 
 5 Cassava     1          2002       1 16763     -0.441            0.559  0.140 
 6 Cassava     1          2002       2 18472     -0.442            0.558  0.117 
 7 Cassava     1          2002       3 20775     -0.396            0.604  0.144 
 8 Cassava     1          2002       4 19990     -0.365            0.635  0.179 
 9 Cassava     1          2003       1 16591     -0.446            0.554 -0.0444
10 Cassava     1          2003       2 19460     -0.412            0.588 -0.0377
# ℹ 5,750 more rows
# ℹ 43 more variables: t <int>, region <chr>, product <chr>, Value_prod <dbl>,
#   rer_hp <dbl>, r_hp <dbl>, pi <dbl>, ind_prod <dbl>, price_int <dbl>,
#   int_price_inf <dbl>, temp_min <dbl>, temp_max <dbl>, temp_mean <dbl>,
#   precip_sum <dbl>, precip_piscop_sum <dbl>, perc_gamma_precip <dbl>,
#   perc_gamma_precip_piscop <dbl>, gdd_rice <dbl>, gdd_maize <dbl>,
#   gdd_potato <dbl>, gdd_cassava <dbl>, hdd_rice <dbl>, hdd_maize <dbl>, …
…
