The Dynamic Effects of Weather Shocks on Agricultural Production - 18 Agricultural Production: Positive vs. Negative Surprise Shocks (LP)
…
library(fastDummies)

Thank you for using fastDummies!
To acknowledge our work, please cite the package:
Kaplan, J. & Schlegel, B. (2023). fastDummies: Fast Creation of Dummy (Binary) Columns and Rows from Categorical Variables. Version 1.7.1. URL: https://github.com/jacobkap/fastDummies, https://jacobkap.github.io/fastDummies/.

The data can be loaded (see Chapter 5)

load("../data/output/df_lp.rda")
df

# A tibble: 14,040 × 116
   product_eng region_id month date       y_new y_dev_pct y_new_normalized     y
   <chr>       <fct>     <dbl> <date>     <dbl>     <dbl>            <dbl> <dbl>
 1 Cassava     1             1 2001-01-01 5322     -0.452            0.548 0.527
 2 Cassava     1             2 2001-02-01 4388     -0.555            0.445 0.402
 3 Cassava     1             3 2001-03-01 5664.    -0.455            0.545 0.480
 4 Cassava     1             4 2001-04-01 5664.    -0.434            0.566 0.486
 5 Cassava     1             5 2001-05-01 5099     -0.534            0.466 0.370
 6 Cassava     1             6 2001-06-01 5537     -0.544            0.456 0.308
 7 Cassava     1             7 2001-07-01 5537     -0.523            0.477 0.335
 8 Cassava     1             8 2001-08-01 5993     -0.481            0.519 0.346
 9 Cassava     1             9 2001-09-01 5622.    -0.519            0.481 0.273
10 Cassava     1            10 2001-10-01 5622.    -0.464            0.536 0.315
# ℹ 14,030 more rows
# ℹ 108 more variables: t <int>, region <chr>, product <chr>, ln_prices <dbl>,
#   ln_produc <dbl>, year <dbl>, Value_prod <dbl>, surf_m <dbl>,
#   Value_surfR <dbl>, Value_prices <dbl>, campaign <dbl>,
#   campaign_plain <chr>, month_campaign <dbl>, surf_lag_calend <dbl>,
#   perc_product <dbl>, perc_product_mean <dbl>, diff_plant_harv <dbl>,
#   exposition <dbl>, exposition_trend <dbl>, exposition_detrended <dbl>, …
…
